{
  "total": {{total}},
  "rows": [
    {% for accionestrategica in accionesestrategicas %}
      {
        "id": {{accionestrategica.id}},
        "nombre": "{{accionestrategica.nombre}}",
        "codigo": "{{accionestrategica.codigo}}"
      }{% if not forloop.last %},{% endif %}
    {% endfor %}
  ]
}
