{
  "total": {{total}},
  "rows": [
    {% for pdrc in pdrcs %}
      {
        "id": {{pdrc.id}},
        "periodo": "{{pdrc.periodo}}",
        "ejeecon": "{{pdrc.ejeecon}}",
        "codigo": "{{pdrc.codigo}}",
        "descripcion": "{{pdrc.descripcion|escapejs}}",
        "estado": "{{pdrc.estado|yesno:'Activo,Inactivo'}}"
      }{% if not forloop.last %},{% endif %}
    {% endfor %}
  ]
}