{
  "total": {{total}},
  "rows": [
    {% for profesion in profesion %}
      {
        "id": {{profesion.id}},
        "nombre": "{{profesion.nombre}}"
      }{% if not forloop.last %} ,{% endif %}
    {% endfor %}
  ]
}
