{
  "total": {{total}},
  "rows": [
    {% for indicador in indicador %}
      {
        "id": {{indicador.id}},
        "nombre": "{{indicador.nombre}}"
      }{% if not forloop.last %},{% endif %}
    {% endfor %}
  ]
}
