{
  "total": {{total}},
  "rows": [
    {% for tareacatalogo in tareascatalogos %}
      {
        "id": {{tareacatalogo.id}},
        "nombre": "{{tareacatalogo.nombre}}"
      }{% if not forloop.last %},{% endif %}
    {% endfor %}
  ]
}
